{
    "flags": "vrzl",
    "options": [
      "rsh=ssh"
    ],
    "include": [],
    "exclude": [
      "docs",
      ".env.ci",
      ".env.dist",
      ".env.testing.dist",
      ".git",
      ".gitattributes",
      ".gitignore",
      ".gitlab-ci.yml",
      ".releaserc.json",
      "codeception.yml",
      "jest.config.js",
      "phpcs.xml",
      "phpstan-baseline.neon",
      "phpstan.neon",
      "README.md",
      "tests",
      "vendor",
      "node_modules"
    ],
    "include-file": false,
    "exclude-file": false,
    "filter-file": false,
    "filter-perdir": false,
    "filter": []
  }